﻿"S.N.","Project Name","Sector","Type","Total Investment (Million USD)","Approval Date","Initiated by"
"1"," Dangote Cement "," Mines and Minerals ","Investment/Project","555","November 1, 2013","IBN"
"2"," Reliance Cement "," Mines and Minerals ","Investment/Project","400","November 21, 2014","IBN"
"3"," Kathmandu Solid Waste  Management Project (Package I) "," Urban Development ","Investment/Project","49","November 21, 2014","Relevant Ministry"
"4"," Kathmandu Solid Waste  Management Project (Package II and III) "," Urban Development ","Investment/Project","8","November 21, 2014","Relevant Ministry"
"5"," West Seti Hydropower  (750MW) "," Energy ","Investment","1600","April 13, 2015","IBN"
"6"," Hongshi Shivam  Cement "," Mines and Minerals ","Investment/Project","359.18","July 28, 2015","IBN"
"7"," Huaxin Cement  Narayani "," Mines and Minerals ","Investment/Project","140","December 20, 2015","IBN"
"8"," Dharan Solid Waste  Management "," Urban Development ","Investment","2.40","August 2, 2017","IBN"
"9"," Birethathi-Muktinath  Cable Car "," Tourism ","Study","350","April 28, 2018","IBN"
"10"," Dolma Fund  Management "," Energy ","Study","200","July 17, 2018","IBN"
"11"," Fiver Star Hotels "," Tourism ","Investment/Project","139","September 18, 2018","IBN"
"12"," Vehicle Manufacturing  and Assembly Plant  "," Manufacturing ","Study","105.40","March 15, 2019","IBN"
"13"," 550 MW Nepal Solar  Power Project in Seven Provinces "," Energy ","Study","424.77","June 2, 2019","IBN"
"14"," World Buddhist  Exhibition Park "," Tourism ","Investment/Project","2030","June 2, 2019","IBN"
"15"," Private Freight  Terminal and Bulk Handling Terminal ","Transport","Study","65.1","June 2, 2019","IBN"
"16"," China-Nepal Friendship  Industrial Park "," Manufacturing ","Investment/Project","586.09","August 2, 2019","IBN"
"17"," Multimodal Logistics  Park "," Transport ","Study","71.80","August 2, 2019","IBN"
"18"," Railway Linked Private  Freight Terminal Project "," Transport ","Study","62.00","August 2, 2019","IBN"
"19"," Upper Trishuli-1  Hydropower "," Energy ","Investment","647.40","December 29, 2019","IBN"
"20"," Upper Trishuli-3B  Hydropower "," Energy ","Investment","82.20","December 29, 2019","IBN"
"21"," Marshyangdi Besi  Hydropower "," Energy ","Investment","117.75","December 29, 2019","IBN"
"22"," Samrat Cement "," Mines and Minerals ","Investment","150.60","June 19, 2020","IBN"
"23"," Dang Cement "," Mines and Minerals ","Investment","325","June 19, 2020","IBN"
"24"," Upper Marshyangdi-2  Hydropower Project "," Energy ","Investment","647.16","June 19, 2020","IBN"
"25"," Ishuwa Khola Hydropower  Project "," Energy ","Investment","135.71","June 19, 2020","IBN"
"26"," Kaligandaki Gorge  Hydropwer Project "," Energy ","Investment","280.68","June 19, 2020","IBN"
"27"," Myagdi Khola  Hydropower "," Energy ","Investment","103.17","June 19, 2020","IBN"
"28"," Ankhu Khola  Hydropower "," Energy ","Investment","63.09","June 19, 2020","IBN"
"29","Ghunsa Khola Hydropower","Energy","Investment","152","November 10, 2020","IBN"
"30","Dudh Khola Hydropower","Energy","Investment","89.9","November 10, 2020","IBN"
"31","Himchuli Dordi Hydropower","Energy","Investment","91.5","November 10, 2020","IBN"
